…
1.  Date_reproted: data of reported (year-month-day)
2.  Country_code: short alphabetic or numeric geographical codes
3.  Country name
4.  WHO_regin: African Region (AFR), Region of the Americas (AMR),
    South-East Asian Region (SEAR), European Region (EUR), Eastern
    Mediterranean Region (EMR), and Western Pacific Region (WPR)
5.  New_cases: number of new cases on the reported date
6.  Cumulative cases: cumulative cases by the reported date
7.  New_deaths: number of new deaths on the reported date
8.  Cumulative_deathes: cumulative deathes by the reported date

<!-- -->

    ## # A tibble: 189,272 × 8
    ##    Date_reported Country_code Country     WHO_region  New_cases Cumulative_cases
    ##    <date>        <chr>        <chr>       <fct>           <dbl>            <dbl>
    ##  1 2020-01-03    AF           Afghanistan Eastern Me…         0                0
    ##  2 2020-01-04    AF           Afghanistan Eastern Me…         0                0
    ##  3 2020-01-05    AF           Afghanistan Eastern Me…         0                0
    ##  4 2020-01-06    AF           Afghanistan Eastern Me…         0                0
    ##  5 2020-01-07    AF           Afghanistan Eastern Me…         0                0
    ##  6 2020-01-08    AF           Afghanistan Eastern Me…         0                0
    ##  7 2020-01-09    AF           Afghanistan Eastern Me…         0                0
    ##  8 2020-01-10    AF           Afghanistan Eastern Me…         0                0
    ##  9 2020-01-11    AF           Afghanistan Eastern Me…         0                0
    ## 10 2020-01-12    AF           Afghanistan Eastern Me…         0                0
    ## # … with 189,262 more rows, and 2 more variables: New_deaths <dbl>,
    ## #   Cumulative_deaths <dbl>
…
